digraph ruby_classes {
  node[shape=record]
  Kernel[label="{Kernel \< Module|методы, доступные везде}" ];
  BasicObject[label="{BasicObject \< Class|Абстрактный объект}"];
  Object[label="{Object \< Class|Обычный объект}"];
  Module[label="{Module \< Class|Набор методов}"];
  Class[label="{Class \< Class|Класс, который можно инстанцировать}"];
  Kernel -> Object;
  BasicObject -> Object;
  Object -> Module;
  Module -> Class [style=dashed];
}
